%YAML 1.1
%TAG !u! tag:unity3d.com,2011:
--- !u!114 &11400000
MonoBehaviour:
  m_ObjectHideFlags: 0
  m_PrefabParentObject: {fileID: 0}
  m_PrefabInternal: {fileID: 0}
  m_GameObject: {fileID: 0}
  m_Enabled: 1
  m_EditorHideFlags: 0
  m_Script: {fileID: 11500000, guid: c8078fb5ca219c34ea80805fec36beae, type: 3}
  m_Name: ChatSettingsFile
  m_EditorClassIdentifier: 
  AppId: 3e8e7f4f-aa9e-45f9-92ab-c2137d9ceb2f
  WizardDone: 1
