%YAML 1.1
%TAG !u! tag:unity3d.com,2011:
--- !u!74 &7400000
AnimationClip:
  m_ObjectHideFlags: 0
  m_PrefabParentObject: {fileID: 0}
  m_PrefabInternal: {fileID: 0}
  m_Name: MonsterSlashLine
  serializedVersion: 6
  m_Legacy: 0
  m_Compressed: 0
  m_UseHighQualityCurve: 1
  m_RotationCurves: []
  m_CompressedRotationCurves: []
  m_EulerCurves: []
  m_PositionCurves: []
  m_ScaleCurves: []
  m_FloatCurves: []
  m_PPtrCurves:
  - curve:
    - time: 0
      value: {fileID: 21300000, guid: 89ec40d14f1dc63429381642368d93af, type: 3}
    - time: 0.041666668
      value: {fileID: 21300000, guid: a606796e54ab08744a82ddc96e34c25a, type: 3}
    - time: 0.083333336
      value: {fileID: 21300000, guid: 1498fba9474500449b48595e8f47373c, type: 3}
    - time: 0.125
      value: {fileID: 21300000, guid: 81d665f03160ab84e847dd009f37e3ef, type: 3}
    - time: 0.16666667
      value: {fileID: 21300000, guid: a7172453e4217904898b99b034d1de61, type: 3}
    - time: 0.20833333
      value: {fileID: 21300000, guid: d261e0dcd3a6eaa478e7be145ed5fb5e, type: 3}
    - time: 0.25
      value: {fileID: 21300000, guid: cfaa0d821c3b46243b4c1f3550db6684, type: 3}
    attribute: m_Sprite
    path: 
    classID: 114
    script: {fileID: -765806418, guid: f70555f144d8491a825f0804e09c671c, type: 3}
  m_SampleRate: 24
  m_WrapMode: 0
  m_Bounds:
    m_Center: {x: 0, y: 0, z: 0}
    m_Extent: {x: 0, y: 0, z: 0}
  m_ClipBindingConstant:
    genericBindings:
    - serializedVersion: 2
      path: 0
      attribute: 2015549526
      script: {fileID: -765806418, guid: f70555f144d8491a825f0804e09c671c, type: 3}
      typeID: 114
      customType: 0
      isPPtrCurve: 1
    pptrCurveMapping:
    - {fileID: 21300000, guid: 89ec40d14f1dc63429381642368d93af, type: 3}
    - {fileID: 21300000, guid: a606796e54ab08744a82ddc96e34c25a, type: 3}
    - {fileID: 21300000, guid: 1498fba9474500449b48595e8f47373c, type: 3}
    - {fileID: 21300000, guid: 81d665f03160ab84e847dd009f37e3ef, type: 3}
    - {fileID: 21300000, guid: a7172453e4217904898b99b034d1de61, type: 3}
    - {fileID: 21300000, guid: d261e0dcd3a6eaa478e7be145ed5fb5e, type: 3}
    - {fileID: 21300000, guid: cfaa0d821c3b46243b4c1f3550db6684, type: 3}
  m_AnimationClipSettings:
    serializedVersion: 2
    m_AdditiveReferencePoseClip: {fileID: 0}
    m_AdditiveReferencePoseTime: 0
    m_StartTime: 0
    m_StopTime: 0.29166666
    m_OrientationOffsetY: 0
    m_Level: 0
    m_CycleOffset: 0
    m_HasAdditiveReferencePose: 0
    m_LoopTime: 1
    m_LoopBlend: 0
    m_LoopBlendOrientation: 0
    m_LoopBlendPositionY: 0
    m_LoopBlendPositionXZ: 0
    m_KeepOriginalOrientation: 0
    m_KeepOriginalPositionY: 1
    m_KeepOriginalPositionXZ: 0
    m_HeightFromFeet: 0
    m_Mirror: 0
  m_EditorCurves: []
  m_EulerEditorCurves: []
  m_HasGenericRootTransform: 0
  m_HasMotionFloatCurves: 0
  m_GenerateMotionCurves: 0
  m_Events:
  - time: 0.29166666
    functionName: FinishedAnimation
    data: 
    objectReferenceParameter: {fileID: 0}
    floatParameter: 0
    intParameter: 0
    messageOptions: 0
